GDP components over time and among countries · Portfolio website for Vasu Puri
…
# Let us compare GDP components for these 3 countries
country_list <- c("United States","India", "Germany")

First, can you produce this plot?

data_for_plot  <- tidy_GDP_data    %>% 
  select(1:3, 5:7,9 ,10) %>%
  filter(Country %in% c("Germany", "India", "United States")) %>%
  pivot_longer(cols = 4:8, names_to = "GDP component", values_to = "Dollar Amount")

data_for_plot

## # A tibble: 720 x 5
##    CountryID Country year  `GDP component`         `Dollar Amount`
##        <dbl> <chr>   <chr> <chr>                             <dbl>
##  1       276 Germany 1970  Household expenditure              872.
##  2       276 Germany 1970  Government expenditure             280.
##  3       276 Germany 1970  Gross capital formation            442.
##  4       276 Germany 1970  Exports                            174.
##  5       276 Germany 1970  Imports                            188.
##  6       276 Germany 1971  Household expenditure              919.
##  7       276 Germany 1971  Government expenditure             298.
##  8       276 Germany 1971  Gross capital formation            444.
##  9       276 Germany 1971  Exports                            178.
## 10       276 Germany 1971  Imports                            202.
## # ... with 710 more rows

data_for_plot  <- tidy_GDP_data    %>% 
  select(1:3, 5:7,9 ,10) %>%
  filter(Country %in% c("Germany", "India", "United States")) %>%
  pivot_longer(cols = 4:8, names_to = "GDP component", values_to = "Dollar Amount")

data_for_plot

## # A tibble: 720 x 5
##    CountryID Country year  `GDP component`         `Dollar Amount`
##        <dbl> <chr>   <chr> <chr>                             <dbl>
##  1       276 Germany 1970  Household expenditure              872.
##  2       276 Germany 1970  Government expenditure             280.
##  3       276 Germany 1970  Gross capital formation            442.
##  4       276 Germany 1970  Exports                            174.
##  5       276 Germany 1970  Imports                            188.
##  6       276 Germany 1971  Household expenditure              919.
##  7       276 Germany 1971  Government expenditure             298.
##  8       276 Germany 1971  Gross capital formation            444.
##  9       276 Germany 1971  Exports                            178.
## 10       276 Germany 1971  Imports                            202.
## # ... with 710 more rows
…
Secondly, we note that GDP is the sum of Household Expenditure (Consumption C), Gross Capital Formation (business investment I), Government Expenditure (G) and Net Exports (exports - imports) and calculate it as follows.

options(scipen = 999)

calculated_GDP <- tidy_GDP_data %>%
mutate(Net_Exports = `Exports`-`Imports`) %>%
# *******double check what columns should be included in the TotGDP count column below**********
  mutate(TotGDP = `Household expenditure`+ `Government expenditure`+ `Net_Exports` + `Gross capital formation`) %>%
  select(2,3,11, 22) %>%
  mutate(Percentage_Difference = (`TotGDP`-`Gross Domestic Product (GDP)`)/`Gross Domestic Product (GDP)`*100)

calculated_GDP

## # A tibble: 10,560 x 5
##    Country     year  `Gross Domestic Product (GDP)` TotGDP Percentage_Difference
##    <chr>       <chr>                          <dbl>  <dbl>                 <dbl>
##  1 Afghanistan 1970                           10.7    6.35                 -40.8
##  2 Afghanistan 1971                           10.7    6.15                 -42.5
##  3 Afghanistan 1972                            8.94   5.94                 -33.6
##  4 Afghanistan 1973                            9.20   6.49                 -29.4
##  5 Afghanistan 1974                            9.70   7.09                 -26.9
##  6 Afghanistan 1975                           10.3    7.47                 -27.5
##  7 Afghanistan 1976                           10.9    8.20                 -24.6
##  8 Afghanistan 1977                           10.3    8.49                 -17.7
##  9 Afghanistan 1978                           11.1    8.98                 -19.0
## 10 Afghanistan 1979                           10.8    8.68                 -19.6
## # ... with 10,550 more rows
…
The percentage difference between what we calculated as GDP and the GDP figure included in the dataframe varies from country to country and from year to year. However, we observe that the average difference in 2017 was, on average, less than 1%. When looking more closely at a handful of countries it becomes evident that there are exceptions, such as with Afghanistan, which has a % difference of 31%.

From the chart above we can see that for all 3 countries Net Exports represents the smallest component of GDP, and vice versa, Household expenditure is the largest but its worthwhile that the latter has evolved differently in time across these countries (rising in the US, decreasing in India and plateauing in Germany). Gross capital formation has been rising sharply in India since 2000, whilst it has remained relatively constant in the US and Germany. Government expenditure instead has been fairly constant across all 3 countries, with a slight decline for the US and it has the same weight on GDP as Gross Capital formation for US and Germany, whilst it is much smaller component for India.

data_for_plot  <- tidy_GDP_data    %>% 
  select(1:3, 5:7,9 ,10) %>%
  filter(Country %in% c("Italy", "China", "United Arab Emirates")) %>%
  pivot_longer(cols = 4:8, names_to = "GDP component", values_to = "Dollar Amount")

data_for_plot

## # A tibble: 720 x 5
##    CountryID Country year  `GDP component`         `Dollar Amount`
##        <dbl> <chr>   <chr> <chr>                             <dbl>
##  1       156 China   1970  Household expenditure            108.  
##  2       156 China   1970  Government expenditure            19.3 
##  3       156 China   1970  Gross capital formation           67.6 
##  4       156 China   1970  Exports                            5.08
##  5       156 China   1970  Imports                            5.86
##  6       156 China   1971  Household expenditure            112.  
##  7       156 China   1971  Government expenditure            22.6 
##  8       156 China   1971  Gross capital formation           73.8 
##  9       156 China   1971  Exports                            6.08
## 10       156 China   1971  Imports                            5.87
## # ... with 710 more rows
…
