…
# Use `lubridate` to fix dates, as they are given as characters.

approval_polllist$modeldate <- mdy(approval_polllist$modeldate)
approval_polllist$startdate <- mdy(approval_polllist$startdate)
approval_polllist$enddate <- mdy(approval_polllist$enddate)

approval_polllist

## # A tibble: 15,538 x 22
##    president subgroup modeldate  startdate  enddate    pollster grade samplesize
##    <chr>     <chr>    <date>     <date>     <date>     <chr>    <chr>      <dbl>
##  1 Donald T~ All pol~ 2020-09-18 2017-01-20 2017-01-22 Gallup   B           1500
##  2 Donald T~ All pol~ 2020-09-18 2017-01-20 2017-01-22 Morning~ B/C         1992
##  3 Donald T~ All pol~ 2020-09-18 2017-01-20 2017-01-24 Ipsos    B-          1632
##  4 Donald T~ All pol~ 2020-09-18 2017-01-21 2017-01-23 Gallup   B           1500
##  5 Donald T~ All pol~ 2020-09-18 2017-01-22 2017-01-24 Rasmuss~ C+          1500
##  6 Donald T~ All pol~ 2020-09-18 2017-01-21 2017-01-25 Ipsos    B-          1651
##  7 Donald T~ All pol~ 2020-09-18 2017-01-22 2017-01-24 Gallup   B           1500
##  8 Donald T~ All pol~ 2020-09-18 2017-01-20 2017-01-25 Quinnip~ B+          1190
##  9 Donald T~ All pol~ 2020-09-18 2017-01-23 2017-01-25 Rasmuss~ C+          1500
## 10 Donald T~ All pol~ 2020-09-18 2017-01-23 2017-01-25 Gallup   B           1500
## # ... with 15,528 more rows, and 14 more variables: population <chr>,
## #   weight <dbl>, influence <dbl>, approve <dbl>, disapprove <dbl>,
## #   adjusted_approve <dbl>, adjusted_disapprove <dbl>, multiversions <chr>,
## #   tracking <lgl>, url <chr>, poll_id <dbl>, question_id <dbl>,
## #   createddate <chr>, timestamp <chr>
…
